# Object Export From Tinkercad Server 2015

mtllib obj.mtl

o obj_0
v 180 		-171 		300
v 180 		-171 		0
v 180 		129 		0
v 180 		129 		300
v -120 		129 		300
v -120 		129 		0
v -120 		-171 		0
v -120 		-171 		300
v 109 		-171 		12
v 105 		-171 		12
v 105 		-171 		8
v 109 		-171 		8
v 176 		121 		8
v -45 		-171 		12
v -49 		-171 		12
v -49 		-171 		8
v 22.357 		-14.481 		204
v -49 		78 		12
v 25.982 		-12.634 		204
v -49 		78 		8
v -45 		78 		12
v 176 		-171 		8
v 34.018 		-12.634 		200
v 176 		-171 		4
v 176 		121 		4
v 30 		-11.998 		200
v -45 		78 		8
v 30 		-11.998 		204
v 176 		121 		200
v 176 		121 		204
v 37.643 		-14.481 		200
v 176 		-171 		200
v -44.5 		74 		8
v -44.5 		78 		8
v 176 		-171 		204
v 40.519 		-17.357 		200
v -116 		121 		8
v -17.003 		-33.499 		8
v -17.002 		-33.499 		8
v 30 		13.503 		8
v 22.357 		-35.519 		200
v -116 		-171 		8
v 22.357 		-35.519 		204
v -116 		121 		4
v 25.982 		-37.366 		204
v -45 		-171 		8
v 25.982 		-37.366 		200
v -116 		-171 		4
v -17.003 		-171 		5.998
v -17.003 		-171 		8
v -116 		-171 		204
v -116 		121 		204
v -116 		121 		200
v -116 		-171 		200
v 30 		-38.003 		204
v 77.003 		-171 		8
v 77.003 		-171 		5.998
v 37.643 		-35.519 		200
v 37.643 		-35.519 		204
v 34.018 		-37.366 		200
v 34.018 		-37.366 		204
v 109 		78 		8
v 34.018 		-12.634 		204
v 37.643 		-14.481 		204
v 40.519 		-17.357 		204
v 176.003 		-171 		3.997
v -116.003 		-171 		3.997
v 77.002 		-33.499 		8
v 77.003 		-33.499 		8
v 105 		74 		8
v -116.003 		-171 		296.003
v 42.366 		-20.982 		204
v 176.003 		-171 		296.003
v 43.003 		-25 		204
v 42.366 		-29.018 		204
v 19.481 		-32.643 		204
v 40.519 		-32.643 		204
v 17.634 		-29.018 		204
v 176.003 		125.002 		3.997
v 16.998 		-25 		204
v 30 		13.503 		5.998
v -116.003 		125.002 		3.997
v -17.002 		-33.499 		5.998
v 17.634 		-20.982 		204
v 77.002 		-33.499 		5.998
v 176.003 		125.002 		296.003
v -17.003 		-33.499 		5.998
v 77.003 		-33.499 		5.998
v 19.481 		-17.357 		204
v -116.003 		125.002 		296.003
v 109 		78 		12
v 30 		-38.003 		200
v -44.5 		74 		12
v -44.5 		78 		12
v 105 		74 		12
v 19.481 		-32.643 		200
v 17.634 		-29.018 		200
v 16.998 		-25 		200
v 17.634 		-20.982 		200
v 19.481 		-17.357 		200
v 22.357 		-14.481 		200
v 25.982 		-12.634 		200
v 42.366 		-20.982 		200
v 43.003 		-25 		200
v 42.366 		-29.018 		200
v 40.519 		-32.643 		200
# 106 vertices

g group_0_2829873

usemtl color_2829873
s 0

f 1 	2 	3
f 1 	3 	4
f 5 	6 	7
f 5 	7 	8
f 1 	5 	8
f 4 	5 	1
f 3 	7 	6
f 2 	7 	3
f 3 	5 	4
f 7 	2 	67
f 73 	1 	71
f 8 	71 	1
f 67 	71 	7
f 8 	7 	71
f 66 	2 	73
f 66 	67 	2
f 1 	73 	2
f 5 	3 	6
f 82 	67 	79
f 66 	79 	67
f 90 	86 	71
f 71 	86 	73
f 82 	90 	71
f 82 	71 	67
f 73 	86 	79
f 73 	79 	66
f 82 	79 	86
f 82 	86 	90
# 28 faces

g group_0_16448250

usemtl color_16448250
s 0

f 9 	10 	11
f 9 	11 	12
f 15 	18 	20
f 15 	20 	16
f 21 	18 	15
f 21 	15 	14
f 13 	22 	25
f 24 	25 	22
f 21 	27 	20
f 21 	20 	18
f 35 	29 	30
f 30 	52 	28
f 26 	29 	23
f 32 	29 	35
f 34 	27 	33
f 46 	33 	27
f 48 	42 	37
f 40 	33 	39
f 38 	39 	33
f 46 	38 	33
f 14 	15 	16
f 14 	16 	46
f 41 	43 	45
f 41 	45 	47
f 48 	37 	44
f 46 	16 	49
f 48 	49 	16
f 48 	16 	42
f 51 	52 	53
f 51 	53 	54
f 57 	24 	12
f 12 	11 	57
f 56 	57 	11
f 13 	37 	34
f 27 	34 	37
f 60 	61 	59
f 60 	59 	58
f 22 	12 	24
f 48 	24 	57
f 48 	57 	49
f 50 	46 	49
f 22 	13 	62
f 51 	32 	35
f 76 	51 	43
f 32 	51 	54
f 68 	70 	40
f 69 	70 	68
f 33 	40 	70
f 61 	35 	59
f 51 	35 	55
f 62 	13 	34
f 78 	51 	76
f 25 	44 	13
f 37 	13 	44
f 20 	27 	37
f 63 	30 	28
f 64 	30 	63
f 65 	30 	64
f 72 	30 	65
f 19 	28 	52
f 81 	40 	39
f 81 	39 	83
f 40 	81 	85
f 40 	85 	68
f 46 	50 	38
f 30 	72 	74
f 75 	35 	74
f 35 	75 	77
f 77 	59 	35
f 30 	74 	35
f 39 	38 	87
f 39 	87 	83
f 37 	42 	20
f 16 	20 	42
f 69 	68 	85
f 69 	85 	88
f 89 	52 	84
f 45 	51 	55
f 43 	51 	45
f 61 	55 	35
f 22 	62 	12
f 49 	87 	38
f 49 	38 	50
f 11 	70 	69
f 11 	69 	56
f 56 	69 	88
f 56 	88 	57
f 52 	51 	80
f 84 	52 	80
f 17 	52 	89
f 17 	19 	52
f 78 	80 	51
f 81 	83 	85
f 24 	48 	44
f 24 	44 	25
f 91 	9 	62
f 12 	62 	9
f 57 	88 	85
f 57 	85 	83
f 87 	49 	83
f 57 	83 	49
f 33 	93 	94
f 33 	94 	34
f 94 	93 	95
f 97 	96 	54
f 70 	95 	33
f 93 	33 	95
f 106 	32 	58
f 60 	58 	32
f 94 	91 	62
f 34 	94 	62
f 54 	96 	41
f 10 	95 	70
f 10 	70 	11
f 91 	94 	95
f 10 	9 	95
f 91 	95 	9
f 27 	21 	46
f 21 	14 	46
f 101 	53 	102
f 61 	60 	92
f 61 	92 	55
f 36 	31 	29
f 43 	41 	76
f 96 	76 	41
f 97 	78 	76
f 97 	76 	96
f 31 	23 	29
f 102 	53 	26
f 78 	97 	98
f 78 	98 	80
f 105 	32 	106
f 32 	105 	104
f 103 	29 	104
f 36 	29 	103
f 32 	104 	29
f 99 	84 	80
f 99 	80 	98
f 41 	47 	54
f 47 	92 	54
f 32 	54 	92
f 92 	60 	32
f 100 	89 	84
f 100 	84 	99
f 99 	98 	53
f 101 	17 	89
f 101 	89 	100
f 100 	53 	101
f 29 	26 	53
f 54 	53 	98
f 99 	53 	100
f 97 	54 	98
f 102 	19 	17
f 102 	17 	101
f 30 	29 	53
f 30 	53 	52
f 26 	28 	19
f 26 	19 	102
f 47 	45 	55
f 47 	55 	92
f 23 	63 	28
f 23 	28 	26
f 31 	64 	63
f 31 	63 	23
f 36 	65 	64
f 36 	64 	31
f 103 	72 	65
f 103 	65 	36
f 104 	74 	72
f 104 	72 	103
f 105 	75 	74
f 105 	74 	104
f 106 	77 	75
f 106 	75 	105
f 77 	106 	59
f 58 	59 	106
# 176 faces

 #end of obj_0

